[
  [
    "Crane ID",
    "Type",
    "Product Description",
    "Make",
    "Model",
    "Plant no.",
    "Serial no.",
    "Free Slew Radius",
    "Operating height",
    "Operating Speed (plan)",
    "Operating Speed (vertical)",
    "Maximum Radius",
    "Lift Capacity @ Max. Radius",
    "Minimum Radius",
    "Lift Capacity @ Min. Radius",
    "Maximum in-service wind speeds",
    "Installation cost",
    "Operating cost",
    "Contingency",
    "Serviceability"
  ],
  [
    "MB001",
    "Mobile",
    "Wheeled",
    "Liebherr",
    "50tn LTC1050",
    "LH1672",
    "212-232",
    "0m",
    "36m",
    "20m/min",
    "20m/min",
    "36m",
    "1,000kg",
    "5m",
    "50,000kg",
    "9.8 m/s (22 mph / 35 kph)",
    "£5k",
    "£1.3k/day",
    "10hrs/month",
    "3hrs/month"
  ],
  [
    "CR001",
    "Crawler",
    "Crawler",
    "Liebherr (via Weldex)",
    "190tn LTR 1220",
    "LH123",
    "23-132-32",
    "0m",
    "50m",
    "30m/min",
    "30m/min",
    "60m",
    "4,000kg",
    "5m",
    "190,000kg",
    "14 m/s (31 mph / 50 kph)",
    "£5k",
    "£1.4k/day",
    "10hrs/month",
    "3hrs/month"
  ],
  [
    "TC001",
    "Tower Crane",
    "Saddle Jib",
    "Potain Manitowoc",
    "MD 509 M25",
    "TC123",
    "1344-2234",
    "80m",
    "60m",
    "75m/min",
    "30m/min",
    "80m",
    "3,700kg",
    "15m",
    "25,000kg",
    "20 m/s (45 mph / 72 kph)",
    "£45k",
    "£1.9k/day",
    "10hrs/month",
    "4hrs/month"
  ],
  [
    "TC002",
    "Tower Crane",
    "Luffer  Jib",
    "Potain Manitowoc",
    "MR 295 H16",
    "TC65",
    "1334-4",
    "20m",
    "60m",
    "40m/min",
    "30m/min",
    "52m",
    "2,800kg",
    "5m",
    "16,000kg",
    "20 m/s (45 mph / 72 kph)",
    "£50k",
    "£2.5k/day",
    "10hrs/month",
    "6hrs/month"
  ],
  [
    "TC003",
    "Tower Crane",
    "Luffer  Jib",
    "Jaso",
    "J80PA",
    "TC128",
    102,
    "20m",
    "50m",
    "40m/min",
    "30m/min",
    "40m",
    "1,000kg",
    "5m",
    "14,000kg",
    "20 m/s (45 mph / 72 kph)",
    "£50k",
    "£2.5k/day",
    "10hrs/month",
    "6hrs/month"
  ]
]